%YAML 1.1
%TAG !u! tag:unity3d.com,2011:
--- !u!1001 &100100000
Prefab:
  m_ObjectHideFlags: 1
  serializedVersion: 2
  m_Modification:
    m_TransformParent: {fileID: 0}
    m_Modifications: []
    m_RemovedComponents: []
  m_SourcePrefab: {fileID: 0}
  m_RootGameObject: {fileID: 1172353377379560}
  m_IsPrefabAsset: 1
--- !u!1 &1172353377379560
GameObject:
  m_ObjectHideFlags: 0
  m_CorrespondingSourceObject: {fileID: 0}
  m_PrefabInternal: {fileID: 100100000}
  serializedVersion: 6
  m_Component:
  - component: {fileID: 4649172671072956}
  - component: {fileID: 2569400266051395866}
  m_Layer: 31
  m_Name: Green_Front
  m_TagString: Untagged
  m_Icon: {fileID: 0}
  m_NavMeshLayer: 0
  m_StaticEditorFlags: 0
  m_IsActive: 1
--- !u!1 &1462036873414526
GameObject:
  m_ObjectHideFlags: 0
  m_CorrespondingSourceObject: {fileID: 0}
  m_PrefabInternal: {fileID: 100100000}
  serializedVersion: 6
  m_Component:
  - component: {fileID: 4370414069250648}
  - component: {fileID: 8195094282784059546}
  - component: {fileID: 3664157345347846136}
  m_Layer: 31
  m_Name: Layer1
  m_TagString: Untagged
  m_Icon: {fileID: 0}
  m_NavMeshLayer: 0
  m_StaticEditorFlags: 0
  m_IsActive: 1
--- !u!4 &4370414069250648
Transform:
  m_ObjectHideFlags: 1
  m_CorrespondingSourceObject: {fileID: 0}
  m_PrefabInternal: {fileID: 100100000}
  m_GameObject: {fileID: 1462036873414526}
  m_LocalRotation: {x: -0, y: -0, z: -0, w: 1}
  m_LocalPosition: {x: 0, y: 0, z: 0}
  m_LocalScale: {x: 1, y: 1, z: 1}
  m_Children: []
  m_Father: {fileID: 4649172671072956}
  m_RootOrder: 0
  m_LocalEulerAnglesHint: {x: 0, y: 0, z: 0}
--- !u!4 &4649172671072956
Transform:
  m_ObjectHideFlags: 1
  m_CorrespondingSourceObject: {fileID: 0}
  m_PrefabInternal: {fileID: 100100000}
  m_GameObject: {fileID: 1172353377379560}
  m_LocalRotation: {x: 0, y: 0, z: 0, w: 1}
  m_LocalPosition: {x: 0, y: 0, z: 0}
  m_LocalScale: {x: 1, y: 1, z: 1}
  m_Children:
  - {fileID: 4370414069250648}
  m_Father: {fileID: 0}
  m_RootOrder: 0
  m_LocalEulerAnglesHint: {x: 0, y: 0, z: 0}
--- !u!114 &114993830159820386
MonoBehaviour:
  m_ObjectHideFlags: 0
  m_CorrespondingSourceObject: {fileID: 0}
  m_PrefabInternal: {fileID: 0}
  m_GameObject: {fileID: 0}
  m_Enabled: 1
  m_EditorHideFlags: 1
  m_Script: {fileID: 12395, guid: 0000000000000000e000000000000000, type: 0}
  m_Name: Palette Settings
  m_EditorClassIdentifier: 
  cellSizing: 0
--- !u!156049354 &2569400266051395866
Grid:
  m_ObjectHideFlags: 1
  m_CorrespondingSourceObject: {fileID: 0}
  m_PrefabInternal: {fileID: 100100000}
  m_GameObject: {fileID: 1172353377379560}
  m_Enabled: 1
  m_CellSize: {x: 1, y: 1, z: 0}
  m_CellGap: {x: 0, y: 0, z: 0}
  m_CellLayout: 0
  m_CellSwizzle: 0
--- !u!483693784 &3664157345347846136
TilemapRenderer:
  m_ObjectHideFlags: 1
  m_CorrespondingSourceObject: {fileID: 0}
  m_PrefabInternal: {fileID: 100100000}
  m_GameObject: {fileID: 1462036873414526}
  m_Enabled: 0
  m_CastShadows: 0
  m_ReceiveShadows: 0
  m_DynamicOccludee: 0
  m_MotionVectors: 1
  m_LightProbeUsage: 0
  m_ReflectionProbeUsage: 0
  m_RenderingLayerMask: 4294967295
  m_Materials:
  - {fileID: 10754, guid: 0000000000000000f000000000000000, type: 0}
  m_StaticBatchInfo:
    firstSubMesh: 0
    subMeshCount: 0
  m_StaticBatchRoot: {fileID: 0}
  m_ProbeAnchor: {fileID: 0}
  m_LightProbeVolumeOverride: {fileID: 0}
  m_ScaleInLightmap: 1
  m_PreserveUVs: 0
  m_IgnoreNormalsForChartDetection: 0
  m_ImportantGI: 0
  m_StitchLightmapSeams: 0
  m_SelectedEditorRenderState: 0
  m_MinimumChartSize: 4
  m_AutoUVMaxDistance: 0.5
  m_AutoUVMaxAngle: 89
  m_LightmapParameters: {fileID: 0}
  m_SortingLayerID: 0
  m_SortingLayer: 0
  m_SortingOrder: 0
  m_ChunkSize: {x: 32, y: 32, z: 32}
  m_ChunkCullingBounds: {x: 0, y: 0, z: 0}
  m_MaxChunkCount: 16
  m_MaxFrameAge: 16
  m_SortOrder: 0
  m_DetectChunkCullingBounds: 0
  m_MaskInteraction: 0
--- !u!1839735485 &8195094282784059546
Tilemap:
  m_ObjectHideFlags: 1
  m_CorrespondingSourceObject: {fileID: 0}
  m_PrefabInternal: {fileID: 100100000}
  m_GameObject: {fileID: 1462036873414526}
  m_Enabled: 1
  m_Tiles:
  - first: {x: -2, y: -3, z: 0}
    second:
      m_TileIndex: 24
      m_TileSpriteIndex: 24
      m_TileMatrixIndex: 0
      m_TileColorIndex: 0
      m_ObjectToInstantiate: {fileID: 0}
      m_TileFlags: 1
      m_ColliderType: 1
  - first: {x: -1, y: -3, z: 0}
    second:
      m_TileIndex: 25
      m_TileSpriteIndex: 25
      m_TileMatrixIndex: 0
      m_TileColorIndex: 0
      m_ObjectToInstantiate: {fileID: 0}
      m_TileFlags: 1
      m_ColliderType: 1
  - first: {x: -2, y: -2, z: 0}
    second:
      m_TileIndex: 18
      m_TileSpriteIndex: 18
      m_TileMatrixIndex: 0
      m_TileColorIndex: 0
      m_ObjectToInstantiate: {fileID: 0}
      m_TileFlags: 1
      m_ColliderType: 1
  - first: {x: -1, y: -2, z: 0}
    second:
      m_TileIndex: 19
      m_TileSpriteIndex: 19
      m_TileMatrixIndex: 0
      m_TileColorIndex: 0
      m_ObjectToInstantiate: {fileID: 0}
      m_TileFlags: 1
      m_ColliderType: 1
  - first: {x: 0, y: -2, z: 0}
    second:
      m_TileIndex: 20
      m_TileSpriteIndex: 20
      m_TileMatrixIndex: 0
      m_TileColorIndex: 0
      m_ObjectToInstantiate: {fileID: 0}
      m_TileFlags: 1
      m_ColliderType: 1
  - first: {x: 1, y: -2, z: 0}
    second:
      m_TileIndex: 21
      m_TileSpriteIndex: 21
      m_TileMatrixIndex: 0
      m_TileColorIndex: 0
      m_ObjectToInstantiate: {fileID: 0}
      m_TileFlags: 1
      m_ColliderType: 1
  - first: {x: 2, y: -2, z: 0}
    second:
      m_TileIndex: 22
      m_TileSpriteIndex: 22
      m_TileMatrixIndex: 0
      m_TileColorIndex: 0
      m_ObjectToInstantiate: {fileID: 0}
      m_TileFlags: 1
      m_ColliderType: 1
  - first: {x: 3, y: -2, z: 0}
    second:
      m_TileIndex: 23
      m_TileSpriteIndex: 23
      m_TileMatrixIndex: 0
      m_TileColorIndex: 0
      m_ObjectToInstantiate: {fileID: 0}
      m_TileFlags: 1
      m_ColliderType: 1
  - first: {x: -2, y: -1, z: 0}
    second:
      m_TileIndex: 12
      m_TileSpriteIndex: 12
      m_TileMatrixIndex: 0
      m_TileColorIndex: 0
      m_ObjectToInstantiate: {fileID: 0}
      m_TileFlags: 1
      m_ColliderType: 1
  - first: {x: -1, y: -1, z: 0}
    second:
      m_TileIndex: 13
      m_TileSpriteIndex: 13
      m_TileMatrixIndex: 0
      m_TileColorIndex: 0
      m_ObjectToInstantiate: {fileID: 0}
      m_TileFlags: 1
      m_ColliderType: 1
  - first: {x: 0, y: -1, z: 0}
    second:
      m_TileIndex: 14
      m_TileSpriteIndex: 14
      m_TileMatrixIndex: 0
      m_TileColorIndex: 0
      m_ObjectToInstantiate: {fileID: 0}
      m_TileFlags: 1
      m_ColliderType: 1
  - first: {x: 1, y: -1, z: 0}
    second:
      m_TileIndex: 15
      m_TileSpriteIndex: 15
      m_TileMatrixIndex: 0
      m_TileColorIndex: 0
      m_ObjectToInstantiate: {fileID: 0}
      m_TileFlags: 1
      m_ColliderType: 1
  - first: {x: 2, y: -1, z: 0}
    second:
      m_TileIndex: 16
      m_TileSpriteIndex: 16
      m_TileMatrixIndex: 0
      m_TileColorIndex: 0
      m_ObjectToInstantiate: {fileID: 0}
      m_TileFlags: 1
      m_ColliderType: 1
  - first: {x: 3, y: -1, z: 0}
    second:
      m_TileIndex: 17
      m_TileSpriteIndex: 17
      m_TileMatrixIndex: 0
      m_TileColorIndex: 0
      m_ObjectToInstantiate: {fileID: 0}
      m_TileFlags: 1
      m_ColliderType: 1
  - first: {x: -2, y: 0, z: 0}
    second:
      m_TileIndex: 6
      m_TileSpriteIndex: 6
      m_TileMatrixIndex: 0
      m_TileColorIndex: 0
      m_ObjectToInstantiate: {fileID: 0}
      m_TileFlags: 1
      m_ColliderType: 1
  - first: {x: -1, y: 0, z: 0}
    second:
      m_TileIndex: 7
      m_TileSpriteIndex: 7
      m_TileMatrixIndex: 0
      m_TileColorIndex: 0
      m_ObjectToInstantiate: {fileID: 0}
      m_TileFlags: 1
      m_ColliderType: 1
  - first: {x: 0, y: 0, z: 0}
    second:
      m_TileIndex: 8
      m_TileSpriteIndex: 8
      m_TileMatrixIndex: 0
      m_TileColorIndex: 0
      m_ObjectToInstantiate: {fileID: 0}
      m_TileFlags: 1
      m_ColliderType: 1
  - first: {x: 1, y: 0, z: 0}
    second:
      m_TileIndex: 9
      m_TileSpriteIndex: 9
      m_TileMatrixIndex: 0
      m_TileColorIndex: 0
      m_ObjectToInstantiate: {fileID: 0}
      m_TileFlags: 1
      m_ColliderType: 1
  - first: {x: 2, y: 0, z: 0}
    second:
      m_TileIndex: 10
      m_TileSpriteIndex: 10
      m_TileMatrixIndex: 0
      m_TileColorIndex: 0
      m_ObjectToInstantiate: {fileID: 0}
      m_TileFlags: 1
      m_ColliderType: 1
  - first: {x: 3, y: 0, z: 0}
    second:
      m_TileIndex: 11
      m_TileSpriteIndex: 11
      m_TileMatrixIndex: 0
      m_TileColorIndex: 0
      m_ObjectToInstantiate: {fileID: 0}
      m_TileFlags: 1
      m_ColliderType: 1
  - first: {x: -2, y: 1, z: 0}
    second:
      m_TileIndex: 0
      m_TileSpriteIndex: 0
      m_TileMatrixIndex: 0
      m_TileColorIndex: 0
      m_ObjectToInstantiate: {fileID: 0}
      m_TileFlags: 1
      m_ColliderType: 1
  - first: {x: -1, y: 1, z: 0}
    second:
      m_TileIndex: 1
      m_TileSpriteIndex: 1
      m_TileMatrixIndex: 0
      m_TileColorIndex: 0
      m_ObjectToInstantiate: {fileID: 0}
      m_TileFlags: 1
      m_ColliderType: 1
  - first: {x: 0, y: 1, z: 0}
    second:
      m_TileIndex: 2
      m_TileSpriteIndex: 2
      m_TileMatrixIndex: 0
      m_TileColorIndex: 0
      m_ObjectToInstantiate: {fileID: 0}
      m_TileFlags: 1
      m_ColliderType: 1
  - first: {x: 1, y: 1, z: 0}
    second:
      m_TileIndex: 3
      m_TileSpriteIndex: 3
      m_TileMatrixIndex: 0
      m_TileColorIndex: 0
      m_ObjectToInstantiate: {fileID: 0}
      m_TileFlags: 1
      m_ColliderType: 1
  - first: {x: 2, y: 1, z: 0}
    second:
      m_TileIndex: 4
      m_TileSpriteIndex: 4
      m_TileMatrixIndex: 0
      m_TileColorIndex: 0
      m_ObjectToInstantiate: {fileID: 0}
      m_TileFlags: 1
      m_ColliderType: 1
  - first: {x: 3, y: 1, z: 0}
    second:
      m_TileIndex: 5
      m_TileSpriteIndex: 5
      m_TileMatrixIndex: 0
      m_TileColorIndex: 0
      m_ObjectToInstantiate: {fileID: 0}
      m_TileFlags: 1
      m_ColliderType: 1
  m_AnimatedTiles: {}
  m_TileAssetArray:
  - m_RefCount: 1
    m_Data: {fileID: 11400000, guid: 1a38b44ad2c862344bb2f11ff256ac5c, type: 2}
  - m_RefCount: 1
    m_Data: {fileID: 11400000, guid: 3a84c794cfe17ba409fc5ae834513b0b, type: 2}
  - m_RefCount: 1
    m_Data: {fileID: 11400000, guid: ccd3a566b296b504ab5826ac31da9bab, type: 2}
  - m_RefCount: 1
    m_Data: {fileID: 11400000, guid: 6e51bc58ac8f5fb4f97fffab3c89be5e, type: 2}
  - m_RefCount: 1
    m_Data: {fileID: 11400000, guid: 1711d427ff8355a40a249cb668dfd2be, type: 2}
  - m_RefCount: 1
    m_Data: {fileID: 11400000, guid: 5505bc5f65f378c49a522005c67f8a19, type: 2}
  - m_RefCount: 1
    m_Data: {fileID: 11400000, guid: 48479a5cf57cc4148a5c88bb9f12da37, type: 2}
  - m_RefCount: 1
    m_Data: {fileID: 11400000, guid: f0c0204c999fbe94fbad64ce97405d23, type: 2}
  - m_RefCount: 1
    m_Data: {fileID: 11400000, guid: c627aefb514ab0f44912901c201c00e1, type: 2}
  - m_RefCount: 1
    m_Data: {fileID: 11400000, guid: 84e652d58d6887f4e9551898d59931b1, type: 2}
  - m_RefCount: 1
    m_Data: {fileID: 11400000, guid: dfd2af90f5145504a96f26093359f99a, type: 2}
  - m_RefCount: 1
    m_Data: {fileID: 11400000, guid: a3fb9ec8490607845928906763ecc450, type: 2}
  - m_RefCount: 1
    m_Data: {fileID: 11400000, guid: 395408c7749052649b78a256a10e466f, type: 2}
  - m_RefCount: 1
    m_Data: {fileID: 11400000, guid: 979e547d75f14054487d9852066f3431, type: 2}
  - m_RefCount: 1
    m_Data: {fileID: 11400000, guid: edc99f6e6e104dd45b5fbfcb579ca296, type: 2}
  - m_RefCount: 1
    m_Data: {fileID: 11400000, guid: f01cac668435694459e162f7572f755b, type: 2}
  - m_RefCount: 1
    m_Data: {fileID: 11400000, guid: a1d95b36458c16744b3592359f0d4995, type: 2}
  - m_RefCount: 1
    m_Data: {fileID: 11400000, guid: ba9207a3dd5505f4985a499b12227029, type: 2}
  - m_RefCount: 1
    m_Data: {fileID: 11400000, guid: ba591780f29cdb940a44db8882cc3a7a, type: 2}
  - m_RefCount: 1
    m_Data: {fileID: 11400000, guid: e04422908a636fc4f9eafdf7847154d9, type: 2}
  - m_RefCount: 1
    m_Data: {fileID: 11400000, guid: 07fcffa8a9a27854280b2d8bce6bbcf5, type: 2}
  - m_RefCount: 1
    m_Data: {fileID: 11400000, guid: d43bf0dcaf6ca6e48ba26717f92f8bab, type: 2}
  - m_RefCount: 1
    m_Data: {fileID: 11400000, guid: 614ecd63553d72c46a38e4108a590d24, type: 2}
  - m_RefCount: 1
    m_Data: {fileID: 11400000, guid: 7a514b8c847bc464bb14b47b457ed824, type: 2}
  - m_RefCount: 1
    m_Data: {fileID: 11400000, guid: e50191305886a6c4d9204ed2c6a9a7a0, type: 2}
  - m_RefCount: 1
    m_Data: {fileID: 11400000, guid: 8276c64b16f1a7e41859c035a2af339b, type: 2}
  m_TileSpriteArray:
  - m_RefCount: 1
    m_Data: {fileID: 21300000, guid: edafa97d6624dcc4d990ef3dbf68aaa6, type: 3}
  - m_RefCount: 1
    m_Data: {fileID: 21300002, guid: edafa97d6624dcc4d990ef3dbf68aaa6, type: 3}
  - m_RefCount: 1
    m_Data: {fileID: 21300004, guid: edafa97d6624dcc4d990ef3dbf68aaa6, type: 3}
  - m_RefCount: 1
    m_Data: {fileID: 21300006, guid: edafa97d6624dcc4d990ef3dbf68aaa6, type: 3}
  - m_RefCount: 1
    m_Data: {fileID: 21300008, guid: edafa97d6624dcc4d990ef3dbf68aaa6, type: 3}
  - m_RefCount: 1
    m_Data: {fileID: 21300010, guid: edafa97d6624dcc4d990ef3dbf68aaa6, type: 3}
  - m_RefCount: 1
    m_Data: {fileID: 21300012, guid: edafa97d6624dcc4d990ef3dbf68aaa6, type: 3}
  - m_RefCount: 1
    m_Data: {fileID: 21300014, guid: edafa97d6624dcc4d990ef3dbf68aaa6, type: 3}
  - m_RefCount: 1
    m_Data: {fileID: 21300016, guid: edafa97d6624dcc4d990ef3dbf68aaa6, type: 3}
  - m_RefCount: 1
    m_Data: {fileID: 21300018, guid: edafa97d6624dcc4d990ef3dbf68aaa6, type: 3}
  - m_RefCount: 1
    m_Data: {fileID: 21300020, guid: edafa97d6624dcc4d990ef3dbf68aaa6, type: 3}
  - m_RefCount: 1
    m_Data: {fileID: 21300022, guid: edafa97d6624dcc4d990ef3dbf68aaa6, type: 3}
  - m_RefCount: 1
    m_Data: {fileID: 21300024, guid: edafa97d6624dcc4d990ef3dbf68aaa6, type: 3}
  - m_RefCount: 1
    m_Data: {fileID: 21300026, guid: edafa97d6624dcc4d990ef3dbf68aaa6, type: 3}
  - m_RefCount: 1
    m_Data: {fileID: 21300028, guid: edafa97d6624dcc4d990ef3dbf68aaa6, type: 3}
  - m_RefCount: 1
    m_Data: {fileID: 21300030, guid: edafa97d6624dcc4d990ef3dbf68aaa6, type: 3}
  - m_RefCount: 1
    m_Data: {fileID: 21300032, guid: edafa97d6624dcc4d990ef3dbf68aaa6, type: 3}
  - m_RefCount: 1
    m_Data: {fileID: 21300034, guid: edafa97d6624dcc4d990ef3dbf68aaa6, type: 3}
  - m_RefCount: 1
    m_Data: {fileID: 21300036, guid: edafa97d6624dcc4d990ef3dbf68aaa6, type: 3}
  - m_RefCount: 1
    m_Data: {fileID: 21300038, guid: edafa97d6624dcc4d990ef3dbf68aaa6, type: 3}
  - m_RefCount: 1
    m_Data: {fileID: 21300040, guid: edafa97d6624dcc4d990ef3dbf68aaa6, type: 3}
  - m_RefCount: 1
    m_Data: {fileID: 21300042, guid: edafa97d6624dcc4d990ef3dbf68aaa6, type: 3}
  - m_RefCount: 1
    m_Data: {fileID: 21300044, guid: edafa97d6624dcc4d990ef3dbf68aaa6, type: 3}
  - m_RefCount: 1
    m_Data: {fileID: 21300046, guid: edafa97d6624dcc4d990ef3dbf68aaa6, type: 3}
  - m_RefCount: 1
    m_Data: {fileID: 21300048, guid: edafa97d6624dcc4d990ef3dbf68aaa6, type: 3}
  - m_RefCount: 1
    m_Data: {fileID: 21300000, guid: 97d46771c251bd14e9cd4df4275a0a04, type: 3}
  m_TileMatrixArray:
  - m_RefCount: 26
    m_Data:
      e00: 1
      e01: 0
      e02: 0
      e03: 0
      e10: 0
      e11: 1
      e12: 0
      e13: 0
      e20: 0
      e21: 0
      e22: 1
      e23: 0
      e30: 0
      e31: 0
      e32: 0
      e33: 1
  m_TileColorArray:
  - m_RefCount: 26
    m_Data: {r: 1, g: 1, b: 1, a: 1}
  m_AnimationFrameRate: 1
  m_Color: {r: 1, g: 1, b: 1, a: 1}
  m_Origin: {x: -2, y: -3, z: 0}
  m_Size: {x: 6, y: 5, z: 1}
  m_TileAnchor: {x: 0.5, y: 0.5, z: 0}
  m_TileOrientation: 0
  m_TileOrientationMatrix:
    e00: 1
    e01: 0
    e02: 0
    e03: 0
    e10: 0
    e11: 1
    e12: 0
    e13: 0
    e20: 0
    e21: 0
    e22: 1
    e23: 0
    e30: 0
    e31: 0
    e32: 0
    e33: 1
